{
  "swagger": "2.0",
  "info": {
    "description": "A NodeJS-based microservice used as a RESTful interface for Entitlements DB in CIF. Provides ability for clients to make GET, POST and DELETE requests for Entitlements stored procedures, and receive a JSON payload in response.",
    "version": "1.0.0",
    "title": "nextgen-service-entitlements",
    "contact": {
      "name": "Mahdi Tehrani, Evan Votta, Kalyan Chandragiri",
      "email": "kchandragiri@firstrepublic.com"
    }
  },
  "basePath": "/entlmts/v1",
  "tags": [
    {
      "name": "Entitlements",
      "description": "Operation for getting account entitlements."
    }
  ],
  "produces": [
    "application/json"
  ],
  "securityDefinitions": {
    "OAuth2": {
      "type": "oauth2",
      "flow": "implicit",
      "authorizationUrl": "https://cidmsrh.frbnp1.com:3000/as/token.oauth2/",
      "scopes": {
        "read": "Grants read access",
        "write": "Grants write access"
      }
    }
  },
  "paths": {
    "/entitlements": {
      "get": {
        "tags": [
          "Entitlements"
        ],
        "summary": "The endpoint used to get a list of entitled accounts via CIF's entitlement DB call.",
        "description": "The endpoint used to get a list of entitled accounts via CIF's entitlement DB call.",
        "operationId": "getEntitlements",
        "produces": [
          "application/json"
        ],
        "parameters": [
          {
            "name": "Authorization",
            "in": "header",
            "description": "Mandatory authorization token that this system will verify.",
            "type": "string",
            "required": true
          },
          {
            "name": "LdapID",
            "in": "header",
            "description": "Input to this field is Optional for CIF, but this API will requires it or a GAID or it will return no results, only a fault code.",
            "required": false,
            "type": "string"
          },
          {
            "name": "GAID",
            "in": "query",
            "description": "Input to this field is Optional for CIF, but this API will requires it or a LdapID or it will return no results, only a fault code.",
            "required": false,
            "type": "string"
          },
          {
            "name": "refreshCache",
            "in": "query",
            "description": "Input to this field is Optional. refreshCache=True indicates to clear the cache and get entitment details from CIF.",
            "required": false,
            "type": "boolean"
          },
          {
            "name": "correlationId",
            "in": "header",
            "description": "The correlationId to track interservice communication.",
            "required": false,
            "type": "string"
          }
        ],
        "responses": {
          "200": {
            "description": "Successfully returned a list of account(s) (accounts).",
            "schema": {
              "$ref": "#/definitions/Result"
            }
          },
          "400": {
            "description": "Indicates a client-side request. This usually indicates there was no LdapID and GAID added to the request.",
            "schema": {
              "$ref": "#/definitions/EmptyRequest"
            }
          },
          "401": {
            "description": "Not authenticated",
            "schema": {
              "$ref": "#/definitions/NotAuthorized"
            }
          },
          "500": {
            "description": "A server-side error. This indicated that either the LdapID or the GAID could not return a valid result.",
            "schema": {
              "$ref": "#/definitions/Error"
            }
          },
          "503": {
            "description": "A server-side error. This indicates serval possible issues including the DB Stored Procedure is not available or the DB is timing out.",
            "schema": {
              "$ref": "#/definitions/Unavailable"
            }
          }
        },
        "security": [
          {
            "OAuth2": [
              "read"
            ]
          }
        ],
        "x-swagger-router-controller": "Entitlements"
      },
      "post": {
        "tags": [
          "Entitlements"
        ],
        "summary": "The endpoint used to post a list of accounts via CIF's entitlement DB stored procedure call.",
        "description": "The endpoint used to post a list of accounts via CIF's entitlement DB stored procedure call.",
        "operationId": "postEntitlements",
        "produces": [
          "application/json"
        ],
        "parameters": [
          {
            "name": "Authorization",
            "in": "header",
            "description": "Mandatory authorization token that this system will verify.",
            "type": "string",
            "required": true
          },
          {
            "name": "LdapID",
            "in": "header",
            "description": "Input to this field is Optional for CIF, but this API will requires it or a GAID or it will return no results, only a fault code.",
            "required": true,
            "type": "string"
          },
          {
            "name": "correlationId",
            "in": "header",
            "description": "The correlationId to track interservice communication.",
            "required": false,
            "type": "string"
          },
          {
            "in": "body",
            "name": "upsertEntitlementsInputs",
            "description": "Some description about what goes in",
            "required": true,
            "schema": {
              "$ref": "#/definitions/UpsertEntitlementsInputs"
            }
          }
        ],
        "responses": {
          "200": {
            "description": "Successfully returned a list submitted account information and a list of results for each account submitted.",
            "schema": {
              "$ref": "#/definitions/UpsertResult"
            }
          },
          "400": {
            "description": "Indicates a client-side request. This usually indicates there was no LdapID or Request Body input data added to the request. It could also mean there is a missing/blank required field name like AcctNumber.",
            "schema": {
              "$ref": "#/definitions/UpsertEmptyRequest"
            }
          },
          "401": {
            "description": "Not authenticated",
            "schema": {
              "$ref": "#/definitions/NotAuthorized"
            }
          },
          "500": {
            "description": "A server-side error. This indicated that either the LdapID or the Body Field Input data could not return a valid Delete submission results.",
            "schema": {
              "$ref": "#/definitions/UpsertError"
            }
          },
          "503": {
            "description": "A server-side error. This indicates several possible issues including the DB Stored Procedure is not available or the DB is timing out.",
            "schema": {
              "$ref": "#/definitions/Unavailable"
            }
          }
        },
        "security": [
          {
            "OAuth2": [
              "read"
            ]
          }
        ],
        "x-swagger-router-controller": "Entitlements"
      },
      "delete": {
        "tags": [
          "Entitlements"
        ],
        "summary": "The endpoint used to delete an account for deletion via CIF's entitlement DB stored procedure call.",
        "description": "The endpoint used to delete an account for deletion via CIF's entitlement DB stored procedure call.",
        "operationId": "deleteEntitlement",
        "produces": [
          "application/json"
        ],
        "parameters": [
          {
            "name": "Authorization",
            "in": "header",
            "description": "Mandatory authorization token that this system will verify.",
            "type": "string",
            "required": true
          },
          {
            "name": "LdapID",
            "in": "header",
            "description": "Input to this field identifies the account user.",
            "required": true,
            "type": "string"
          },
          {
            "name": "correlationId",
            "in": "header",
            "description": "The correlationId to track interservice communication.",
            "required": false,
            "type": "string"
          },
          {
            "in": "body",
            "name": "deleteEntitlementInput",
            "description": "Input DELETE Body object containing an array with an object of key/value pairs for the of fields used for the DELETE to the Cif DB",
            "required": true,
            "schema": {
              "$ref": "#/definitions/DeleteEntitlementInput"
            }
          }
        ],
        "responses": {
          "200": {
            "description": "Successfully returned the submitted account information and a result for the account submitted.",
            "schema": {
              "$ref": "#/definitions/DeleteResult"
            }
          },
          "400": {
            "description": "Indicates a client-side request. This usually indicates there was no LdapID or Request Body input data added to the request. It could also mean there is a missing/blank required field name like AcctNumber.",
            "schema": {
              "$ref": "#/definitions/DeleteEmptyRequest"
            }
          },
          "401": {
            "description": "Not authenticated",
            "schema": {
              "$ref": "#/definitions/NotAuthorized"
            }
          },
          "404": {
            "description": "Entitlement not found or not available with the data sent",
            "schema": {
              "$ref": "#/definitions/Delete404"
            }
          },
          "500": {
            "description": "A server-side error. This indicated that either the LdapID or the Body Field Input data could not return a valid Delete submission results.",
            "schema": {
              "$ref": "#/definitions/DeleteError"
            }
          },
          "503": {
            "description": "A server-side error. This indicates several possible issues including the DB Stored Procedure is not available or the DB is timing out.",
            "schema": {
              "$ref": "#/definitions/Unavailable"
            }
          }
        },
        "security": [
          {
            "OAuth2": [
              "read"
            ]
          }
        ],
        "x-swagger-router-controller": "Entitlements"
      }
    },
    "/readyStatus": {
      "get": {
        "tags": [
          "Status"
        ],
        "summary": "Gets the status of the entire given system, including all downstream systems. In this case, it would represent the status of this service and Pershing.",
        "operationId": "getReadyStatus",
        "produces": [
          "application/json"
        ],
        "parameters": [],
        "responses": {
          "200": {
            "description": "Request was successful",
            "schema": {
              "$ref": "#/definitions/ReadyStatus"
            },
            "headers": {
              "revision": {
                "type": "string",
                "description": "The revision number of the application as it's running"
              }
            }
          }
        },
        "x-swagger-router-controller": "Status"
      }
    },
    "/liveStatus": {
      "get": {
        "tags": [
          "Status"
        ],
        "summary": "Gets the status of the microservice itself.",
        "operationId": "getLiveStatus",
        "produces": [
          "application/json"
        ],
        "parameters": [],
        "responses": {
          "200": {
            "description": "Request was successful",
            "schema": {
              "$ref": "#/definitions/LiveStatus"
            },
            "headers": {
              "revision": {
                "type": "string",
                "description": "The revision number of the application as it's running"
              }
            }
          }
        },
        "x-swagger-router-controller": "Status"
      }
    },
    "/entitlements/history": {
      "get": {
        "tags": [
          "Entitlements History"
        ],
        "summary": "The endpoint used to get a historical list of entitled accounts via CIF's entitlement DB call.",
        "description": "The endpoint used to get a historical list of entitled accounts via CIF's entitlement DB call.",
        "operationId": "getEntitlementHistory",
        "produces": [
          "application/json"
        ],
        "parameters": [
          {
            "name": "Authorization",
            "in": "header",
            "description": "Mandatory authorization token that this system will verify.",
            "type": "string",
            "required": true
          },
          {
            "name": "LdapID",
            "in": "header",
            "description": "Input to this field is Optional for CIF, but this API will requires it or a GAID or it will return no results, only a fault code.",
            "required": false,
            "type": "string"
          },
          {
            "name": "GAID",
            "in": "query",
            "description": "Input to this field is Optional for CIF, but this API will requires it or a LdapID or it will return no results, only a fault code.",
            "required": false,
            "type": "string"
          },
          {
            "name": "correlationId",
            "in": "header",
            "description": "The correlationId to track interservice communication.",
            "required": false,
            "type": "string"
          }
        ],
        "responses": {
          "200": {
            "description": "Successfully returned a list of account(s) (accounts).",
            "schema": {
              "$ref": "#/definitions/HistoryResult"
            }
          },
          "400": {
            "description": "Indicates a client-side request. This usually indicates there was no LdapID and GAID added to the request.",
            "schema": {
              "$ref": "#/definitions/EmptyRequest"
            }
          },
          "401": {
            "description": "Not authenticated",
            "schema": {
              "$ref": "#/definitions/NotAuthorized"
            }
          },
          "404": {
            "description": "Entitlement not found or not available with the data sent",
            "schema": {
              "$ref": "#/definitions/History404"
            }
          },
          "500": {
            "description": "A server-side error. Generic with returned explination.",
            "schema": {
              "$ref": "#/definitions/Generic500Error"
            }
          },
          "503": {
            "description": "A server-side error. This indicates serval possible issues including the DB Stored Procedure is not available or the DB is timing out.",
            "schema": {
              "$ref": "#/definitions/Unavailable"
            }
          }
        },
        "security": [
          {
            "OAuth2": [
              "read"
            ]
          }
        ],
        "x-swagger-router-controller": "Entitlements"
      }
    }
  },
  "definitions": {
    "ReadyStatus": {
      "type": "object",
      "properties": {
        "Ready": {
          "type": "boolean",
          "example": true
        },
        "ReadyAsOf": {
          "type": "string",
          "format": "date-time",
          "example": "2017-12-07T15:12:22Z"
        },
        "FailedComponent": {
          "type": "string",
          "example": "CIFdb system",
          "description": "On availability failure, provide the name of a failed component"
        }
      },
      "example": {
        "Ready": true,
        "FailedComponent": "CIFdb system",
        "ReadyAsOf": "2017-12-07T15:12:22Z"
      }
    },
    "LiveStatus": {
      "type": "object",
      "properties": {
        "Live": {
          "type": "boolean",
          "example": true
        },
        "LiveAsOf": {
          "type": "string",
          "format": "date-time",
          "example": "2017-12-07T15:12:22Z"
        }
      },
      "example": {
        "LiveAsOf": "2017-12-07T15:12:22Z",
        "Live": true
      }
    },
    "UpsertEntitlementsInputs": {
      "type": "array",
      "description": "Upsert Entitlements Account List Request Values.",
      "items": {
        "type": "object",
        "description": "Entitlements Request Values.",
        "properties": {
          "AcctNumber": {
            "type": "string",
            "description": "Account Number",
            "example": "87765432345"
          },
          "GAID": {
            "type": "string",
            "description": "Global Account ID",
            "example": "11111231"
          },
          "AcctTypCode": {
            "type": "string",
            "description": "Account Type Code",
            "example": "IL"
          },
          "SourceName": {
            "type": "string",
            "description": "Source System Name",
            "example": "ISL"
          },
          "NonPersonalGCID": {
            "type": "string",
            "description": "Non-Personal Global Client ID",
            "example": "106924543"
          },
          "AgentID": {
            "type": "string",
            "description": "Agent ID",
            "example": "22"
          },
          "UltimateParentAcctNumber": {
            "type": "string",
            "description": "Ultimate Parent Account Number",
            "example": "8569"
          },
          "Notes": {
            "type": "string",
            "description": "Notes",
            "example": "Added Info for Upsert"
          },
          "Action": {
            "type": "string",
            "description": "Action to take",
            "example": "Link"
          }
        }
      }
    },
    "DeleteEntitlementInput": {
      "type": "object",
      "description": "Delete Entitlement Account input (only one at a time)",
      "properties": {
        "AcctNumber": {
          "type": "string",
          "description": "Account Number",
          "example": "87765432345"
        },
        "GAID": {
          "type": "string",
          "description": "Global Account ID",
          "example": "11111231"
        },
        "AcctTypCode": {
          "type": "string",
          "description": "Account Type Code",
          "example": "IL"
        },
        "AgentID": {
          "type": "string",
          "description": "Agent ID",
          "example": "22"
        },
        "UltimateParentAcctNumber": {
          "type": "string",
          "description": "Ultimate Parent Account Number",
          "example": "8569"
        },
        "Action": {
          "type": "string",
          "description": "Action to take",
          "example": "De-Link"
        }
      }
    },
    "Result": {
      "type": "object",
      "properties": {
        "correlationId": {
          "type": "string",
          "example": "ffce661e-b858-45fa-8237-91d8141698e6",
          "description": "A tracking id provided by calling application."
        },
        "status": {
          "type": "integer",
          "example": 200,
          "description": "status code"
        },
        "RequestValues": {
          "type": "object",
          "description": "Entitlements Request Values.",
          "example": {
            "LdapID": "47ac06dd-5099-497b-aea4-0cc6170e221f",
            "GAID": ""
          }
        },
        "accounts": {
          "type": "array",
          "description": "Entitlements Account List Response.",
          "items": {
            "type": "string"
          },
          "example": [
            "GAID",
            "LdapID",
            "UltimateParentAcctNumber",
            "NonPersonalGCID",
            "SourceName",
            "AgentID",
            "OfficerCode"
          ]
        }
      },
      "description": "A result object",
      "example": {
        "correlationId": "ffce661e-b858-45fa-8237-91d8141698e6",
        "status": 200,
        "RequestValues": {
          "LdapID": "47ac06dd-5099-497b-aea4-0cc6170e221f",
          "GAID": ""
        },
        "accounts": [
          {
            "GAID": "2607",
            "LdapID": "47ac06dd-5099-497b-aea4-0cc6170e221f",
            "UltimateParentAcctNumber": "0210191024-0000000042",
            "NonPersonalGCID": "1772396",
            "SourceName": "TPLUSIL",
            "AgentID": "z_pwingspan_nextgenauth",
            "OfficerCode": "ABC"
          },
          {
            "GAID": "328078",
            "LdapID": "47ac06dd-5099-497b-aea4-0cc6170e221f",
            "UltimateParentAcctNumber": "0",
            "NonPersonalGCID": "",
            "SourceName": "TPLUSDD",
            "AgentID": "z_pwingspan_nextgenauth",
            "OfficerCode": ""
          }
        ]
      }
    },
    "HistoryResult": {
      "type": "object",
      "properties": {
        "correlationId": {
          "type": "string",
          "example": "ffce661e-b858-45fa-8237-91d8141698e6",
          "description": "A tracking id provided by calling application."
        },
        "status": {
          "type": "integer",
          "example": 200,
          "description": "status code"
        },
        "RequestValues": {
          "type": "object",
          "description": "History Entitlement Request Values.",
          "example": {
            "LdapID": "a5d93426-2b15-4f82-a160-3f7574919b19",
            "GAID": "328078"
          }
        },
        "accounts": {
          "type": "array",
          "description": "History Entitlement Account List Response.",
          "items": {
            "type": "string"
          },
          "example": [
            "GAID",
            "LdapID",
            "SourceName",
            "AgentID",
            "Action",
            "AcctNumber",
            "AcctTypCode",
            "TimeStamp",
            "UltimateParentAcctNumber",
            "Remarks"
          ]
        }
      },
      "description": "A result object",
      "example": {
        "correlationId": "ffce661e-b858-45fa-8237-91d8141698e6",
        "status": 200,
        "RequestValues": {
          "LdapID": "a5d93426-2b15-4f82-a160-3f7574919b19",
          "GAID": "328078"
        },
        "accounts": [
          {
            "GAID": "328078",
            "LdapID": "a5d93426-2b15-4f82-a160-3f7574919b19,",
            "SourceName": "TPLUSDD",
            "AgentID": 22,
            "Action": "LINK",
            "AcctNumber": 50009243213,
            "AcctTypCode": "DD",
            "TimeStamp": "2016-08-02T03:48:13-07:00,",
            "UltimateParentAcctNumber": 0,
            "Remarks": ""
          },
          {
            "GAID": "328078",
            "LdapID": "a5d93426-2b15-4f82-a160-3f7574919b19",
            "SourceName": "TPLUSDD",
            "AgentID": "Test",
            "Action": "DELINK",
            "AcctNumber": 50009243213,
            "AcctTypCode": "DD",
            "TimeStamp": "2017-03-22T09:30:26.000Z",
            "UltimateParentAcctNumber": 0,
            "Remarks": ""
          }
        ]
      }
    },
    "UpsertResult": {
      "type": "object",
      "properties": {
        "correlationId": {
          "type": "string",
          "example": "ffce661e-b858-45fa-8237-91d8141698e6",
          "description": "A tracking id provided by calling application."
        },
        "status": {
          "type": "integer",
          "example": 200,
          "description": "status code"
        },
        "RequestValues": {
          "type": "object",
          "description": "Entitlements Request Values.",
          "properties": {
            "LdapID": {
              "type": "string",
              "example": "ffce661e-b858-45fa-8237-91d8141698e6",
              "description": "LdapID account number."
            },
            "AcctList": {
              "type": "array",
              "description": "Upsert Entitlements Account List Request Values.",
              "items": {
                "type": "object",
                "description": "Entitlements Request Values.",
                "properties": {
                  "AcctNumber": {
                    "type": "string",
                    "example": 87765432345,
                    "description": "A tracking id provided by calling application."
                  },
                  "GAID": {
                    "type": "string",
                    "example": 11111231,
                    "description": "A tracking id provided by calling application."
                  },
                  "AcctTypCode": {
                    "type": "string",
                    "example": "IL",
                    "description": "A tracking id provided by calling application."
                  },
                  "SourceName": {
                    "type": "string",
                    "example": "ISL",
                    "description": "A tracking id provided by calling application."
                  },
                  "NonPersonalGCID": {
                    "type": "string",
                    "example": "ffce661e-b858-45fa-8237-91d8141698e6",
                    "description": "A tracking id provided by calling application."
                  },
                  "AgentID": {
                    "type": "string",
                    "example": 22,
                    "description": "A tracking id provided by calling application."
                  },
                  "UltimateParentAcctNumber": {
                    "type": "string",
                    "example": "",
                    "description": "Ultimate Parent Account Number."
                  },
                  "Notes": {
                    "type": "string",
                    "example": "Client Something",
                    "description": "Notes when Upserting."
                  },
                  "Action": {
                    "type": "string",
                    "enum": [
                      "Link",
                      "Enrolled",
                      "Migrated",
                      "Assisted-Enrolled"
                    ],
                    "description": "The action to take when making the Post request."
                  }
                }
              }
            }
          }
        },
        "ResponseValues": {
          "type": "array",
          "description": "An array of entitlements posting results",
          "items": {
            "type": "object",
            "description": "An individual entitlement posting result",
            "properties": {
              "GAID": {
                "type": "string",
                "example": 11111231,
                "description": "Global Account ID Number."
              },
              "UltimateParentAcctNumber": {
                "type": "string",
                "example": "0210191024-0000000042",
                "description": "Ultimate Parent Account Number."
              },
              "EntitlementAdded": {
                "type": "boolean",
                "example": true,
                "description": "Was action taken?"
              },
              "Status": {
                "type": "string",
                "example": "0",
                "description": "Status number."
              },
              "Remarks": {
                "type": "string",
                "example": "Inserted Profile Successfully",
                "description": "Action result."
              }
            }
          }
        }
      }
    },
    "DeleteResult": {
      "type": "object",
      "properties": {
        "correlationId": {
          "type": "string",
          "example": "ffce661e-b858-45fa-8237-91d8141698e6",
          "description": "A tracking id provided by calling application."
        },
        "status": {
          "type": "integer",
          "example": 200,
          "description": "status code"
        },
        "RequestValues": {
          "type": "object",
          "description": "Entitlements Request Values.",
          "properties": {
            "LdapID": {
              "type": "string",
              "example": "ffce661e-b858-45fa-8237-91d8141698e6",
              "description": "LdapID account number."
            },
            "deleteEntitlementInput": {
              "type": "object",
              "description": "Entitlements Request Values.",
              "properties": {
                "AcctNumber": {
                  "type": "string",
                  "example": 87765432345,
                  "description": "A tracking id provided by calling application."
                },
                "GAID": {
                  "type": "string",
                  "example": 11111231,
                  "description": "A tracking id provided by calling application."
                },
                "AcctTypCode": {
                  "type": "string",
                  "example": "IL",
                  "description": "A tracking id provided by calling application."
                },
                "AgentID": {
                  "type": "string",
                  "example": 22,
                  "description": "A tracking id provided by calling application."
                },
                "UltimateParentAcctNumber": {
                  "type": "string",
                  "example": "",
                  "description": "Ultimate Parent Account Number."
                },
                "Action": {
                  "type": "string",
                  "enum": [
                    "De-Link",
                    "Delink-Complex Loan",
                    "Delink-Closed",
                    "Enrolled",
                    "Migrated",
                    "Assisted-Enrolled"
                  ],
                  "description": "The action to take when making the Delete request."
                }
              }
            }
          }
        },
        "ResponseValues": {
          "type": "object",
          "description": "Entitlements Accounts Response.",
          "properties": {
            "LdapID": {
              "type": "string",
              "example": "ffce661e-b858-45fa-8237-91d8141698e6",
              "description": "LdapID account number."
            },
            "account": {
              "type": "object",
              "description": "Entitlement deletion response values.",
              "properties": {
                "CompletionStatus": {
                  "type": "string",
                  "example": "Success",
                  "description": "Success Status."
                },
                "LdapID": {
                  "type": "boolean",
                  "example": true,
                  "description": "Was action taken?"
                },
                "GAID": {
                  "type": "string",
                  "example": "Inserted Profile Successfully",
                  "description": "Action result."
                },
                "UltimateParentAcctNumber": {
                  "type": "string",
                  "example": "0210191024-0000000042",
                  "description": "Ultimate Parent Account Number."
                },
                "Remarks": {
                  "type": "string",
                  "example": "Profile Deleted Successfully",
                  "description": "Description of what the action result was."
                }
              }
            }
          }
        }
      }
    },
    "EmptyRequest": {
      "type": "object",
      "properties": {
        "correlationId": {
          "type": "string",
          "example": "ffce661e-b858-45fa-8237-91d8141698e6",
          "description": "Return the correlationId from the original request"
        },
        "status": {
          "type": "integer",
          "example": 400,
          "description": "Http Status Code"
        },
        "code": {
          "type": "string",
          "example": 50003,
          "description": "Error code specifics to the NextGen Services"
        },
        "message": {
          "type": "string",
          "example": "Either LdapID or GAID should be present",
          "description": "Error message"
        }
      }
    },
    "UpsertEmptyRequest": {
      "type": "object",
      "properties": {
        "correlationId": {
          "type": "string",
          "example": "ffce661e-b858-45fa-8237-91d8141698e6",
          "description": "Return the correlationId from the original request"
        },
        "status": {
          "type": "integer",
          "example": 400,
          "description": "Http Status Code"
        },
        "code": {
          "type": "string",
          "example": 50003,
          "description": "Error code specifics to the NextGen Services"
        },
        "message": {
          "type": "string",
          "example": "Either LdapID or Field Input data should be present",
          "description": "Error message"
        }
      }
    },
    "DeleteEmptyRequest": {
      "type": "object",
      "properties": {
        "correlationId": {
          "type": "string",
          "example": "ffce661e-b858-45fa-8237-91d8141698e6",
          "description": "Return the correlationId from the original request"
        },
        "status": {
          "type": "integer",
          "example": 400,
          "description": "Http Status Code"
        },
        "code": {
          "type": "string",
          "example": 50003,
          "description": "Error code specifics to the NextGen Services"
        },
        "message": {
          "type": "string",
          "example": "Either LdapID or Field Input data should be present",
          "description": "Error message"
        }
      }
    },
    "NotAuthorized": {
      "type": "object",
      "properties": {
        "status": {
          "type": "integer",
          "example": 401,
          "description": "Http Status Code"
        },
        "message": {
          "type": "string",
          "example": "BAD REQUEST - Could not decode the token or get the header. Likely malformed.",
          "description": "Error message"
        },
        "correlationId": {
          "type": "string",
          "example": "ffce661e-b858-45fa-8237-91d8141698e6",
          "description": "Return the correlationId from the original request"
        },
        "elapsedTime": {
          "type": "string",
          "example": 692.894,
          "description": "Time elapsed to receive reponse."
        },
        "applicationName": {
          "type": "string",
          "example": "nextgen-service-entitlements",
          "description": "Service name returning reponse."
        },
        "applicationVersion": {
          "type": "string",
          "example": "v1",
          "description": "Application version."
        },
        "level": {
          "type": "string",
          "example": "DEBUG",
          "description": "Where the error was found."
        },
        "code": {
          "type": "string",
          "example": "server_error",
          "description": "Error code specifics to the NextGen Services"
        }
      }
    },
    "Error": {
      "type": "object",
      "properties": {
        "correlationId": {
          "type": "string",
          "example": "ffce661e-b858-45fa-8237-91d8141698e6",
          "description": "Return the correlationId from the original request"
        },
        "status": {
          "type": "integer",
          "example": 500,
          "description": "Http Status Code"
        },
        "code": {
          "type": "string",
          "example": 50004,
          "description": "Error code specifics to the NextGen Services"
        },
        "message": {
          "type": "string",
          "example": "Invalid Input Error - LDAPD or GAID is not found in Entitlement DB",
          "description": "Error message"
        }
      }
    },
    "Generic500Error": {
      "type": "object",
      "properties": {
        "correlationId": {
          "type": "string",
          "example": "ffce661e-b858-45fa-8237-91d8141698e6",
          "description": "Return the correlationId from the original request"
        },
        "status": {
          "type": "integer",
          "example": 500,
          "description": "Http Status Code"
        },
        "code": {
          "type": "string",
          "example": 50004,
          "description": "Error code specifics to the NextGen Services"
        },
        "message": {
          "type": "string",
          "example": "Error - Entitlement DB resonded with a processing error.",
          "description": "Error message"
        }
      }
    },
    "UpsertError": {
      "type": "object",
      "properties": {
        "correlationId": {
          "type": "string",
          "example": "ffce661e-b858-45fa-8237-91d8141698e6",
          "description": "Return the correlationId from the original request"
        },
        "status": {
          "type": "integer",
          "example": 500,
          "description": "Http Status Code"
        },
        "code": {
          "type": "string",
          "example": 50004,
          "description": "Error code specifics to the NextGen Services"
        },
        "message": {
          "type": "string",
          "example": "Invalid Input Error - LDAPD or Field Input data is not valid or not present",
          "description": "Error message"
        }
      }
    },
    "DeleteError": {
      "type": "object",
      "properties": {
        "correlationId": {
          "type": "string",
          "example": "ffce661e-b858-45fa-8237-91d8141698e6",
          "description": "Return the correlationId from the original request"
        },
        "status": {
          "type": "integer",
          "example": 500,
          "description": "Http Status Code"
        },
        "code": {
          "type": "string",
          "example": 50004,
          "description": "Error code specifics to the NextGen Services"
        },
        "message": {
          "type": "string",
          "example": "Invalid Input Error - LDAPD or Field Input data is not valid or not present",
          "description": "Error message"
        }
      }
    },
    "Delete404": {
      "type": "object",
      "properties": {
        "correlationId": {
          "type": "string",
          "example": "ffce661e-b858-45fa-8237-91d8141698e6",
          "description": "Return the correlationId from the original request"
        },
        "status": {
          "type": "integer",
          "example": 404,
          "description": "Http Status Code"
        },
        "code": {
          "type": "string",
          "example": 50003,
          "description": "Error code specifics to the NextGen Services"
        },
        "message": {
          "type": "string",
          "example": "Failure - LDAPID - b858-45fa-8237-91d8141698e6,GAID - 7777777,ACOUNT NUMBER - 666666 not available in Entitlement DB",
          "description": "Not found message"
        }
      }
    },
    "History404": {
      "type": "object",
      "properties": {
        "correlationId": {
          "type": "string",
          "example": "ffce661e-b858-45fa-8237-91d8141698e6",
          "description": "Return the correlationId from the original request"
        },
        "status": {
          "type": "integer",
          "example": 404,
          "description": "Http Status Code"
        },
        "code": {
          "type": "string",
          "example": 50003,
          "description": "Error code specifics to the NextGen Services"
        },
        "message": {
          "type": "string",
          "example": "Invalid Input Error - GAID is not found in Entitlement DB",
          "description": "Not found message"
        }
      }
    },
    "Unavailable": {
      "type": "object",
      "properties": {
        "correlationId": {
          "type": "string",
          "example": "ffce661e-b858-45fa-8237-91d8141698e6",
          "description": "Return the correlationId from the original request"
        },
        "status": {
          "type": "integer",
          "example": 503,
          "description": "Http Status Code"
        },
        "code": {
          "type": "string",
          "example": 10001,
          "description": "Error code specifics to the NextGen Services"
        },
        "error": {
          "type": "string",
          "example": "Error: ORA-12541: TNS:no listener at Error (native)",
          "description": "Error message"
        },
        "message": {
          "type": "string",
          "example": "Error: ORA-12541: TNS:no listener at Error (native)",
          "description": "Error message"
        }
      }
    }
  }
}